<svg width="672" height="967" viewBox="0 0 672 967" fill="none" xmlns="http://www.w3.org/2000/svg">
<g filter="url(#filter0_d_3265_2)">
<ellipse cx="21.2798" cy="21.4302" rx="21.2798" ry="21.4302" transform="matrix(0.999996 -0.00251756 0.00227728 0.999998 161.159 247.468)" fill="white"/>
</g>
<g filter="url(#filter1_d_3265_2)">
<ellipse cx="22.1148" cy="22.2479" rx="22.1148" ry="22.2479" transform="matrix(0.999996 -0.00251756 0.00227728 0.999998 579.764 112.376)" fill="white"/>
</g>
<g filter="url(#filter2_d_3265_2)">
<ellipse cx="21.581" cy="21.123" rx="21.581" ry="21.123" transform="matrix(0.999996 -0.00251754 0.00227729 0.999998 314.186 688.415)" fill="white"/>
</g>
<path d="M177.183 289.56L99.72 473.149" stroke="white" stroke-width="1.72551"/>
<path d="M202.888 266.022L272.327 274.711" stroke="white" stroke-width="1.72551"/>
<path d="M196.269 254.632L297.198 172.262" stroke="white" stroke-width="1.72551"/>
<path d="M178.353 247.206L109.049 153.788" stroke="white" stroke-width="1.72551"/>
<path d="M164.973 255.862L2.46005 227.102" stroke="white" stroke-width="1.72551"/>
<path d="M161.502 269.161L11.9626 299.038" stroke="white" stroke-width="1.72551"/>
<path d="M583.855 146.741L467.599 222.513" stroke="white" stroke-width="1.72551"/>
<path d="M609.757 114.859L655.104 1.0357" stroke="white" stroke-width="1.72551"/>
<path d="M618.989 146.739L654.826 178.793" stroke="white" stroke-width="1.72551"/>
<path d="M326.738 718.549L159.336 965.722" stroke="white" stroke-width="1.72551"/>
<path d="M357.944 948.03L336.423 729.647" stroke="white" stroke-width="1.72551"/>
<path d="M445.814 853.403L347.819 725.191" stroke="white" stroke-width="1.72551"/>
<defs>
<filter id="filter0_d_3265_2" x="151.208" y="237.414" width="62.5596" height="62.8603" filterUnits="userSpaceOnUse" color-interpolation-filters="sRGB">
<feFlood flood-opacity="0" result="BackgroundImageFix"/>
<feColorMatrix in="SourceAlpha" type="matrix" values="0 0 0 0 0 0 0 0 0 0 0 0 0 0 0 0 0 0 127 0" result="hardAlpha"/>
<feMorphology radius="5" operator="dilate" in="SourceAlpha" result="effect1_dropShadow_3265_2"/>
<feOffset/>
<feGaussianBlur stdDeviation="2.5"/>
<feColorMatrix type="matrix" values="0 0 0 0 1 0 0 0 0 1 0 0 0 0 1 0 0 0 0.76 0"/>
<feBlend mode="normal" in2="BackgroundImageFix" result="effect1_dropShadow_3265_2"/>
<feBlend mode="normal" in="SourceGraphic" in2="effect1_dropShadow_3265_2" result="shape"/>
</filter>
<filter id="filter1_d_3265_2" x="569.814" y="102.32" width="64.2295" height="64.4959" filterUnits="userSpaceOnUse" color-interpolation-filters="sRGB">
<feFlood flood-opacity="0" result="BackgroundImageFix"/>
<feColorMatrix in="SourceAlpha" type="matrix" values="0 0 0 0 0 0 0 0 0 0 0 0 0 0 0 0 0 0 127 0" result="hardAlpha"/>
<feMorphology radius="5" operator="dilate" in="SourceAlpha" result="effect1_dropShadow_3265_2"/>
<feOffset/>
<feGaussianBlur stdDeviation="2.5"/>
<feColorMatrix type="matrix" values="0 0 0 0 1 0 0 0 0 1 0 0 0 0 1 0 0 0 0.76 0"/>
<feBlend mode="normal" in2="BackgroundImageFix" result="effect1_dropShadow_3265_2"/>
<feBlend mode="normal" in="SourceGraphic" in2="effect1_dropShadow_3265_2" result="shape"/>
</filter>
<filter id="filter2_d_3265_2" x="304.233" y="678.361" width="63.1621" height="62.246" filterUnits="userSpaceOnUse" color-interpolation-filters="sRGB">
<feFlood flood-opacity="0" result="BackgroundImageFix"/>
<feColorMatrix in="SourceAlpha" type="matrix" values="0 0 0 0 0 0 0 0 0 0 0 0 0 0 0 0 0 0 127 0" result="hardAlpha"/>
<feMorphology radius="5" operator="dilate" in="SourceAlpha" result="effect1_dropShadow_3265_2"/>
<feOffset/>
<feGaussianBlur stdDeviation="2.5"/>
<feColorMatrix type="matrix" values="0 0 0 0 1 0 0 0 0 1 0 0 0 0 1 0 0 0 0.76 0"/>
<feBlend mode="normal" in2="BackgroundImageFix" result="effect1_dropShadow_3265_2"/>
<feBlend mode="normal" in="SourceGraphic" in2="effect1_dropShadow_3265_2" result="shape"/>
</filter>
</defs>
</svg>
